{
  "ConnectionStrings": {
    "DefaultConnection": "Server=(localdb)\\mssqllocaldb;Database=usersstoredb;Trusted_Connection=True;MultipleActiveResultSets=true"
  },
  "KYCEmail": "example@mail.com",
  "KYCPassword": "5h322{R9wp"
}